<?xml version="1.0" encoding="UTF-8"?>
<glyph name="p" format="1">
  <advance width="701"/>
  <unicode hex="0070"/>
  <outline>
    <contour>
      <point x="273" y="724" type="qcurve"/>
      <point x="273" y="307" type="line"/>
      <point x="319" y="307"/>
      <point x="400" y="340"/>
      <point x="461" y="397"/>
      <point x="497" y="475"/>
      <point x="497" y="521" type="qcurve" smooth="yes"/>
      <point x="497" y="563"/>
      <point x="461" y="637"/>
      <point x="400" y="692"/>
      <point x="319" y="724"/>
    </contour>
    <contour>
      <point x="283" y="877" type="line" smooth="yes"/>
      <point x="359" y="877"/>
      <point x="493" y="820"/>
      <point x="592" y="723"/>
      <point x="649" y="593"/>
      <point x="649" y="521" type="qcurve" smooth="yes"/>
      <point x="649" y="449"/>
      <point x="592" y="319"/>
      <point x="493" y="222"/>
      <point x="359" y="165"/>
      <point x="283" y="165" type="qcurve" smooth="yes"/>
      <point x="273" y="165" type="line"/>
      <point x="273" y="0" type="line"/>
      <point x="121" y="0" type="line"/>
      <point x="121" y="877" type="line"/>
      <point x="273" y="877" type="line"/>
    </contour>
  </outline>
</glyph>
